<svg width="32" height="32" viewBox="0 0 32 32" fill="none" xmlns="http://www.w3.org/2000/svg">
    <path d="M9.33366 29.3333H12.0003V31.9999H9.33366V29.3333ZM16.0003 17.3333C18.2137 17.3333 20.0003 15.5466 20.0003 13.3333V5.33325C20.0003 3.11992 18.2137 1.33325 16.0003 1.33325C13.787 1.33325 12.0003 3.11992 12.0003 5.33325V13.3333C12.0003 15.5466 13.787 17.3333 16.0003 17.3333ZM14.667 5.33325C14.667 4.59992 15.267 3.99992 16.0003 3.99992C16.7337 3.99992 17.3337 4.59992 17.3337 5.33325V13.3333C17.3337 14.0799 16.747 14.6666 16.0003 14.6666C15.267 14.6666 14.667 14.0666 14.667 13.3333V5.33325ZM14.667 29.3333H17.3337V31.9999H14.667V29.3333ZM20.0003 29.3333H22.667V31.9999H20.0003V29.3333ZM25.3337 13.3333H23.067C23.067 17.3333 19.6803 20.1333 16.0003 20.1333C12.3203 20.1333 8.93366 17.3333 8.93366 13.3333H6.66699C6.66699 17.8799 10.2937 21.6399 14.667 22.2932V26.6666H17.3337V22.2932C21.707 21.6399 25.3337 17.8799 25.3337 13.3333Z"
        fill="white"></path>
</svg>